<svg xmlns="http://www.w3.org/2000/svg" width="46" height="14" viewBox="0 0 46 14">
    <g fill="none" fill-rule="evenodd">
        <path fill="#DEF2FA" d="M43.603 5.464h.146a1.362 1.362 0 0 1 0 2.724h-.146a1.362 1.362 0 0 1 0-2.724"/>
        <path fill="#C0E7F5" d="M38.936 5.464h.147a1.362 1.362 0 0 1 0 2.724h-.147a1.362 1.362 0 0 1 0-2.724"/>
        <path fill="#9CDAF0" d="M34.27 5.464h.146a1.362 1.362 0 0 1 0 2.724h-.146a1.362 1.362 0 0 1 0-2.724"/>
        <path fill="#6FC9E9" d="M29.628 5.464a1.362 1.362 0 0 1 0 2.724h-1.57a1.362 1.362 0 0 1 0-2.724h1.57z"/>
        <path fill="#3EB6E1" d="M21.888 5.464h1.57a1.362 1.362 0 0 1 0 2.724h-1.57a1.362 1.362 0 0 1 0-2.724"/>
        <path fill="#10A5DA" d="M6.42.436C6.941-.085 7.8-.163 8.347.33A1.36 1.36 0 0 1 8.4 2.307C6.238 4.306 5.187 5.358 5.25 5.464c.048.082 3.967.082 11.757 0 .737 0 1.398.552 1.437 1.288a1.362 1.362 0 0 1-1.36 1.436c-7.84-.074-11.784-.074-11.834 0-.073.106.96 1.14 3.096 3.102.522.52.598 1.379.105 1.927a1.362 1.362 0 0 1-1.976.053L1.084 7.44a1 1 0 0 1 .008-1.366L6.42.436z"/>
    </g>
</svg>
