<svg xmlns="http://www.w3.org/2000/svg" xmlns:xlink="http://www.w3.org/1999/xlink" width="86" height="84" viewBox="0 0 86 84">
    <defs>
        <path id="b" d="M69.966 46.381L52.011 26.866c-1.245-.543-3.11-.929-4.676.53-1.537 1.434-1.267 3.324-.785 4.639l17.777 19.32c1.516 1.649 4.026 1.878 5.578.51 1.55-1.367 1.578-3.836.061-5.484"/>
        <filter id="a" width="160.2%" height="156.9%" x="-30.1%" y="-20.8%" filterUnits="objectBoundingBox">
            <feMorphology in="SourceAlpha" operator="dilate" radius=".5" result="shadowSpreadOuter1"/>
            <feOffset dy="2" in="shadowSpreadOuter1" result="shadowOffsetOuter1"/>
            <feGaussianBlur in="shadowOffsetOuter1" result="shadowBlurOuter1" stdDeviation="2"/>
            <feComposite in="shadowBlurOuter1" in2="SourceAlpha" operator="out" result="shadowBlurOuter1"/>
            <feColorMatrix in="shadowBlurOuter1" values="0 0 0 0 0.0431870591 0 0 0 0 0.478442864 0 0 0 0 0.633265399 0 0 0 0.726535184 0"/>
        </filter>
        <path id="d" d="M34.426 6.99l-4.59-5.094c-1.491-1.657-3.96-1.887-5.485-.513-1.524 1.375-1.552 3.853-.061 5.508l4.174 4.633c1.232-.81 4.032-2.72 5.962-4.533"/>
        <filter id="c" width="235.2%" height="237.3%" x="-66.7%" y="-49.8%" filterUnits="objectBoundingBox">
            <feMorphology in="SourceAlpha" operator="dilate" radius=".5" result="shadowSpreadOuter1"/>
            <feOffset dy="2" in="shadowSpreadOuter1" result="shadowOffsetOuter1"/>
            <feGaussianBlur in="shadowOffsetOuter1" result="shadowBlurOuter1" stdDeviation="2"/>
            <feComposite in="shadowBlurOuter1" in2="SourceAlpha" operator="out" result="shadowBlurOuter1"/>
            <feColorMatrix in="shadowBlurOuter1" values="0 0 0 0 0.0431870591 0 0 0 0 0.478442864 0 0 0 0 0.633265399 0 0 0 0.726535184 0"/>
        </filter>
    </defs>
    <g fill="none" fill-rule="evenodd">
        <circle cx="42" cy="42" r="42" fill="#10A5DA" fill-opacity=".901"/>
        <g transform="rotate(180 43 36)">
            <use fill="#000" filter="url(#a)" xlink:href="#b"/>
            <use fill="#F8E71C" stroke="#0FA0D3" xlink:href="#b"/>
        </g>
        <g transform="rotate(180 43 36)">
            <use fill="#000" filter="url(#c)" xlink:href="#d"/>
            <use fill="#F8E71C" stroke="#0FA0D3" xlink:href="#d"/>
        </g>
        <path fill="#FFF" d="M33.042 53.217c-.123.624.102 1.156.405 1.533.303.377 1.336.684 1.516.744 1.07.359.94 1.12.954 1.897.017.91 1.192 1.342 1.87 1.391.678.05 1.191.483 1.2 1.11 0 .068.041 1.512 1.926 2.199 3.14 1.166 3.81 1.578 3.81 1.578 2.344 1.188 3.999.192 4.867-.46 2.962-2.224 9.717-7.334 13.378-7.055l10.687.283c1.68.044-.294-15.897-1.71-15.531-2.455.607-7.381 1.83-10.114 2.545-3.742.978-7.309.558-7.309.558s-3.578-1.68-7.565-3.48c-1.923-.867-4.128-.135-5.341.224 1.6 2.691.323 5.53-1.994 7.032-2.149 1.392-5.23 1.603-6.823.275-1.351 1.143-1.5 2.438-1.185 3.115.579 1.255 1.677.794 1.428 2.042z"/>
        <path fill="#FFF" d="M76.03 60.073l-3.398-.71a1 1 0 0 1-.792-.892l-1.673-19.122a1 1 0 0 1 .679-1.035l4.178-1.401 1.006 23.16zM85.042 59.932l-7.99.419-1.256-23.967 7.99-.419z"/>
    </g>
</svg>
