<?xml version="1.0" encoding="utf-8"?>
<!-- Generator: Adobe Illustrator 23.0.1, SVG Export Plug-In . SVG Version: 6.00 Build 0)  -->
<svg version="1.1" id="Layer_1" xmlns="http://www.w3.org/2000/svg" xmlns:xlink="http://www.w3.org/1999/xlink" x="0px" y="0px"
	 viewBox="0 0 50 41" style="enable-background:new 0 0 50 41;" xml:space="preserve">
<style type="text/css">
	.st0{filter:url(#Adobe_OpacityMaskFilter);}
	.st1{fill-rule:evenodd;clip-rule:evenodd;fill:#FFFFFF;}
	.st2{mask:url(#mask-2_1_);fill-rule:evenodd;clip-rule:evenodd;fill:#079D6E;}
	.st3{filter:url(#Adobe_OpacityMaskFilter_1_);}
	.st4{mask:url(#mask-2_2_);fill-rule:evenodd;clip-rule:evenodd;fill:#219CC6;}
	.st5{filter:url(#Adobe_OpacityMaskFilter_2_);}
	.st6{mask:url(#mask-2_3_);fill-rule:evenodd;clip-rule:evenodd;fill:#079D6E;}
</style>
<g id="Group-4">
	<g id="Clip-2">
	</g>
	<defs>
		<filter id="Adobe_OpacityMaskFilter" filterUnits="userSpaceOnUse" x="17.3" y="0.1" width="32.6" height="34.6">
			<feColorMatrix  type="matrix" values="1 0 0 0 0  0 1 0 0 0  0 0 1 0 0  0 0 0 1 0"/>
		</filter>
	</defs>
	<mask maskUnits="userSpaceOnUse" x="17.3" y="0.1" width="32.6" height="34.6" id="mask-2_1_">
		<g class="st0">
			<polygon id="path-1_1_" class="st1" points="0.1,0.1 49.9,0.1 49.9,40.9 0.1,40.9 			"/>
		</g>
	</mask>
	<path id="Fill-1" class="st2" d="M47.1,23.4c1.7-2.3,2.6-4.9,2.6-7.7c0-8.6-8.8-15.5-19.8-15.5c-4.8,0-9.2,1.3-12.6,3.6
		c1.6-0.3,3.3-0.5,5-0.5c11.7,0,21.3,7.7,21.3,17.1c0,3.7-1.5,7.2-4,10c2.5,1.9,6.5,4.4,10.3,4.4C47.2,32,47,26.1,47.1,23.4"/>
	<defs>
		<filter id="Adobe_OpacityMaskFilter_1_" filterUnits="userSpaceOnUse" x="0" y="6.3" width="39.5" height="34.6">
			<feColorMatrix  type="matrix" values="1 0 0 0 0  0 1 0 0 0  0 0 1 0 0  0 0 0 1 0"/>
		</filter>
	</defs>
	<mask maskUnits="userSpaceOnUse" x="0" y="6.3" width="39.5" height="34.6" id="mask-2_2_">
		<g class="st3">
			<polygon id="path-1_2_" class="st1" points="0.1,0.1 49.9,0.1 49.9,40.9 0.1,40.9 			"/>
		</g>
	</mask>
	<path id="Fill-3" class="st4" d="M19.8,6.3C8.8,6.3,0,13.3,0,21.9c0,4.2,2.1,8,5.6,10.8c-0.2,2.9-0.9,6.3-2.8,8.2
		c3.9,0,7.8-2.5,10.3-4.4c2.1,0.6,4.3,0.9,6.7,0.9c10.9,0,19.8-7,19.8-15.5C39.5,13.3,30.7,6.3,19.8,6.3z M19.8,8.5
		c9.7,0,17.6,6,17.6,13.3s-7.9,13.3-17.6,13.3c-2.1,0-4.1-0.3-6.1-0.8l-1-0.3l-0.8,0.7c-1.7,1.3-3.4,2.3-4.9,3
		c0.4-1.4,0.7-3,0.8-4.9l0.1-1.2L6.9,31c-3.1-2.5-4.8-5.7-4.8-9.1C2.1,14.5,10,8.5,19.8,8.5z"/>
	<defs>
		<filter id="Adobe_OpacityMaskFilter_2_" filterUnits="userSpaceOnUse" x="15" y="16" width="11" height="11">
			<feColorMatrix  type="matrix" values="1 0 0 0 0  0 1 0 0 0  0 0 1 0 0  0 0 0 1 0"/>
		</filter>
	</defs>
	<mask maskUnits="userSpaceOnUse" x="15" y="16" width="11" height="11" id="mask-2_3_">
		<g class="st5">
			<polygon id="path-1_3_" class="st1" points="0.1,0.1 49.9,0.1 49.9,40.9 0.1,40.9 			"/>
		</g>
	</mask>
	<polyline id="Fill-5" class="st6" points="18.7,27 22.3,27 22.3,23.3 26,23.3 26,19.7 22.3,19.7 22.3,16 18.7,16 18.7,19.7 
		15,19.7 15,23.3 18.7,23.3 18.7,27 	"/>
</g>
</svg>
